9	19
10	20
11	21
12	22
13	23
14	24
15	25
16	26
17	27
18	28
64	102
65	103
66	104
67	105
68	106
69	107
70	108
71	109
72	110
73	111
74	112
75	113
76	114
77	115
78	116
79	117
80	118
81	119
82	120
83	121
84	122
85	123
86	124
87	125
88	126
89	127
90	128
91	129
92	130
93	131
94	132
95	133
96	134
97	135
98	136
99	137
100	138
101	139
159	557
165	563
210	608
208	606
206	604
204	602
202	600
200	598
198	596
196	594
194	592
192	590
190	588
188	586
186	584
241	639
244	642
246	644
248	646
250	648
252	650
254	652
256	654
258	656
260	658
262	660
264	662
266	664
213	611
162	560
152	550
153	551
155	553
270	668
272	670
274	672
276	674
278	676
280	678
282	680
284	682
286	684
288	686
290	688
292	690
294	692
297	695
343	741
341	739
339	737
337	735
335	733
333	731
331	729
329	727
327	725
325	723
321	719
322	720
363	761
361	759
359	757
357	755
355	753
353	751
351	749
349	747
347	745
385	783
387	785
388	786
389	787
390	788
391	789
392	790
419	817
440	838
442	840
458	856
455	853
437	835
416	814
402	800
403	801
399	797
413	811
434	832
453	851
466	864
446	844
462	860
450	848
407	805
508	906
527	925
505	903
523	921
501	899
518	916
496	894
513	911
534	932
510	908
491	889
489	887
487	885
481	879
494	892
484	882
429	827
476	874
471	869
521	919
148	546
378	776
308	706
312	710
176	574
410	808
427	825
232	630
376	774
307	705
497	895
187	585
235	633
167	565
377	775
529	927
169	567
228	626
197	595
253	651
178	576
157	555
201	599
225	623
263	661
259	657
223	621
207	605
265	663
211	609
475	873
149	547
315	713
332	730
356	754
281	679
145	543
420	818
316	714
328	726
465	863
524	922
287	685
515	913
240	638
291	689
180	578
189	587
231	629
408	806
405	803
370	768
435	833
397	795
533	931
243	641
386	784
342	740
302	700
400	798
398	796
340	738
303	701
338	736
195	593
193	591
177	575
283	681
285	683
229	627
230	628
174	572
227	625
226	624
255	653
173	571
205	603
170	568
171	569
199	597
175	573
311	709
224	622
172	570
203	601
222	620
313	711
219	617
273	671
217	615
218	616
221	619
220	618
261	659
277	675
275	673
314	712
216	614
209	607
443	841
468	866
214	612
168	566
326	724
215	613
160	558
163	561
166	564
161	559
212	610
365	763
158	556
441	839
164	562
317	715
267	665
156	554
268	666
269	667
271	669
319	717
318	716
144	542
143	541
320	718
154	552
323	721
324	722
150	548
423	821
142	540
151	549
147	545
140	538
141	539
425	823
424	822
146	544
421	819
464	862
456	854
457	855
336	734
352	750
251	649
306	704
305	703
354	752
309	707
279	677
257	655
334	732
310	708
375	773
360	758
366	764
330	728
358	756
373	771
369	767
372	770
362	760
371	769
364	762
368	766
374	772
396	794
439	837
367	765
438	836
418	816
393	791
417	815
414	812
394	792
401	799
395	793
536	934
467	865
472	870
470	868
499	897
444	842
426	824
454	852
506	904
469	867
473	871
459	857
445	843
460	858
436	834
404	802
428	826
474	872
519	917
520	918
502	900
485	883
503	901
507	905
504	902
522	920
498	896
479	877
516	914
535	933
514	912
537	935
517	915
488	886
500	898
480	878
482	880
532	930
483	881
495	893
512	910
486	884
490	888
511	909
492	890
493	891
509	907
530	928
531	929
237	635
379	777
242	640
185	583
184	582
238	636
239	637
295	693
296	694
181	579
183	581
182	580
236	634
298	696
245	643
293	691
191	589
289	687
249	647
233	631
247	645
234	632
179	577
461	859
447	845
463	861
415	813
448	846
433	831
449	847
452	850
432	830
451	849
411	809
477	875
478	876
525	923
431	829
430	828
406	804
412	810
526	924
528	926
301	699
409	807
382	780
384	782
300	698
299	697
383	781
346	744
345	743
344	742
348	746
381	779
350	748
380	778
304	702
422	820